
{
  "pagination": {
    "total": 116019,
    "limit": 12,
    "offset": 0,
    "total_pages": 9669,
    "current_page": 1,
    "next_url": "https://api.artic.edu/api/v1/artworks?page=2&fields=id%2Ctitle%2Cartist_display%2Cdate_display%2Cimage_id%2Cartist_title"
  },
  "data": [
    {
      "id": 262768,
      "title": "Ratherina - Rang/ Oahat, Egypt",
      "date_display": "n.d.",
      "artist_display": "Joseph Yoakum\nAmerican, 1890-1972",
      "artist_title": "Joseph Yoakum",
      "image_id": "85728063-e456-1c59-4d98-736cd1c3d0a2"
    },
    {
      "id": 262769,
      "title": "Part #2 of Floor view Grand Canyon National Park near Grand Canyon Arizona",
      "date_display": "stamped Nov. 13, 1964",
      "artist_display": "Joseph Yoakum\nAmerican, 1890-1972",
      "artist_title": "Joseph Yoakum",
      "image_id": "c9970f76-359c-f1f4-8530-7de62bb781bb"
    },
    {
      "id": 219674,
      "title": "Untitled",
      "date_display": "February 13, 1932",
      "artist_display": "Photographer unknown",
      "artist_title": "Unknown Maker",
      "image_id": "2e2dea3a-cb32-11ed-a6bb-6dabee831bc3"
    },
    {
      "id": 219669,
      "title": "Tennis Champs Jake and Frances",
      "date_display": "1940/50",
      "artist_display": "Photographer unknown",
      "artist_title": "Unknown Maker",
      "image_id": "83acac6a-6594-1a91-23a4-665608f8a96c"
    },
    {
      "id": 219702,
      "title": "Untitled",
      "date_display": "1940/50",
      "artist_display": "Photographer unknown",
      "artist_title": "Unknown Maker",
      "image_id": "5ac6318c-6713-bc26-718a-4dc226aebad1"
    },
    {
      "id": 219686,
      "title": "Untitled",
      "date_display": "1920/60",
      "artist_display": "Photographer unknown",
      "artist_title": "Unknown Maker",
      "image_id": "f38538c1-74ca-458c-c9db-871645480432"
    },
    {
      "id": 219706,
      "title": "Untitled",
      "date_display": "June 1918",
      "artist_display": "Photographer unknown",
      "artist_title": "Unknown Maker",
      "image_id": "298ea712-2848-0557-fadc-797d5dafdba6"
    },
    {
      "id": 219704,
      "title": "Untitled",
      "date_display": "1915/30",
      "artist_display": "Photographer unknown",
      "artist_title": "Unknown Maker",
      "image_id": "8c1da7b0-07b5-0071-48ed-7deabe67a353"
    },
    {
      "id": 219750,
      "title": "The Big Six: McCoo, Graham, Nunnally, Polk, Nixon, and Collins",
      "date_display": "1920/50",
      "artist_display": "Photographer unknown",
      "artist_title": "Unknown Maker",
      "image_id": "0b76537c-06f0-a098-5b61-9bdb4c4978ff"
    },
    {
      "id": 219712,
      "title": "Untitled",
      "date_display": "1950s",
      "artist_display": "Photographer unknown",
      "artist_title": "Unknown Maker",
      "image_id": null
    },
    {
      "id": 219711,
      "title": "Stealing Everything I Could Get my Hands on",
      "date_display": "1932",
      "artist_display": "Photographer unknown",
      "artist_title": "Unknown Maker",
      "image_id": "ac7a8f18-99cf-ce70-5a44-b02aba5dcf0d"
    },
    {
      "id": 219792,
      "title": "Mother Castro, Crownsville, Maine",
      "date_display": "1949, printed June 1951",
      "artist_display": "Photographer unknown",
      "artist_title": "Unknown Maker",
      "image_id": "7ebad26f-5e1e-128a-5498-c636cc84edcc"
    }
  ],
  "info": {
    "license_text": "The data in this response is licensed under a Creative Commons Zero (CC0) 1.0 designation and the Terms and Conditions of artic.edu.",
    "license_links": [
      "https://creativecommons.org/publicdomain/zero/1.0/",
      "https://www.artic.edu/terms"
    ],
    "version": "1.3"
  },
  "config": {
    "iiif_url": "https://www.artic.edu/iiif/2",
    "website_url": "http://www.artic.edu"
  }
}
